{
  "totalResults": 509,
  "page": 1,
  "total_pages": 21,
  "more_pages": true,
  "data": [
    {
      "restaurant_name": "Juanita Greenberg?s",
      "restaurant_phone": "(843) 329-6224",
      "restaurant_website": "",
      "hours": "",
      "price_range": "$",
      "price_range_num": 1,
      "restaurant_id": 3279662079885140,
      "cuisines": [
        ""
      ],
      "address": {
        "city": "Mount Pleasant",
        "state": "SC",
        "postal_code": "29464",
        "street": "410 W Coleman Blvd",
        "formatted": "410 W Coleman Blvd Mount Pleasant, SC 29464"
      },
      "geo": {
        "lat": 32.79662,
        "lon": -79.88514
      },
      "menus": [],
      "last_updated": "2020-12-28T17:58:02.971Z"
    },
    {
      "restaurant_name": "Five Guys Burgers & Fries",
      "restaurant_phone": "(843) 881-4550",
      "restaurant_website": "http://www.fiveguys.com",
      "hours": "",
      "price_range": "",
      "price_range_num": 0,
      "restaurant_id": 3279307579931656,
      "cuisines": [
        "American",
        "Burgers",
        "Grill",
        "Lunch Specials",
        "Sandwiches"
      ],
      "address": {
        "city": "Mount Pleasaant",
        "state": "SC",
        "postal_code": "29464",
        "street": "1795 Us Hwy 17 North",
        "formatted": "1795 Us Hwy 17 North Mount Pleasaant, SC 29464"
      },
      "geo": {
        "lat": 32.793075,
        "lon": -79.931656
      },
      "menus": [],
      "last_updated": "2021-01-05T07:28:35.762Z"
    },
    {
      "restaurant_name": "Waffle House",
      "restaurant_phone": "(843) 856-9599",
      "restaurant_website": "http://www.wafflehouse.com",
      "hours": "",
      "price_range": "",
      "price_range_num": 0,
      "restaurant_id": 3284106379859260,
      "cuisines": [
        "American"
      ],
      "address": {
        "city": "MOUNT PLEASANT",
        "state": "SC",
        "postal_code": "29464",
        "street": "609 Long Point Rd",
        "formatted": "609 Long Point Rd MOUNT PLEASANT, SC 29464"
      },
      "geo": {
        "lat": 32.841063,
        "lon": -79.85926
      },
      "menus": [],
      "last_updated": "2021-01-05T07:28:35.791Z"
    },
    {
      "restaurant_name": "Subway",
      "restaurant_phone": "(843) 971-1103",
      "restaurant_website": "http://www.subway.com",
      "hours": "",
      "price_range": "",
      "price_range_num": 0,
      "restaurant_id": 3283785079868896,
      "cuisines": [
        "Sandwiches"
      ],
      "address": {
        "city": "MOUNT PLEASANT",
        "state": "SC",
        "postal_code": "29464",
        "street": "528 Long Point Rd",
        "formatted": "528 Long Point Rd MOUNT PLEASANT, SC 29464"
      },
      "geo": {
        "lat": 32.83785,
        "lon": -79.868896
      },
      "menus": [],
      "last_updated": "2021-01-05T07:28:35.803Z"
    },
    {
      "restaurant_name": "Starbucks Coffee",
      "restaurant_phone": "(843) 216-8319",
      "restaurant_website": "http://www.starbucks.com",
      "hours": "",
      "price_range": "",
      "price_range_num": 0,
      "restaurant_id": 3280246079891480,
      "cuisines": [
        "American",
        "Coffee & Tea"
      ],
      "address": {
        "city": "MOUNT PLEASANT",
        "state": "SC",
        "postal_code": "29464",
        "street": "920 Houston Northcutt Blvd",
        "formatted": "920 Houston Northcutt Blvd MOUNT PLEASANT, SC 29464"
      },
      "geo": {
        "lat": 32.80246,
        "lon": -79.89148
      },
      "menus": [],
      "last_updated": "2021-01-05T07:28:35.840Z"
    },
    {
      "restaurant_name": "Dunkin' Donuts",
      "restaurant_phone": "(843) 856-8811",
      "restaurant_website": "http://www.dunkindonuts.com",
      "hours": "",
      "price_range": "",
      "price_range_num": 0,
      "restaurant_id": 3281917979844621,
      "cuisines": [
        "American",
        "Bagels",
        "Bakery & Pastries",
        "Coffee & Tea",
        "Diner"
      ],
      "address": {
        "city": "MOUNT PLEASANT",
        "state": "SC",
        "postal_code": "29464",
        "street": "1522 N Highway 17",
        "formatted": "1522 N Highway 17 MOUNT PLEASANT, SC 29464"
      },
      "geo": {
        "lat": 32.819179,
        "lon": -79.844621
      },
      "menus": [],
      "last_updated": "2021-01-05T07:28:35.845Z"
    },
    {
      "restaurant_name": "Wendy's",
      "restaurant_phone": "(843) 849-6068",
      "restaurant_website": "https://locations.wendys.com/united-states/sc/mount-pleasant/935-chuck-dawley-blvd",
      "hours": "",
      "price_range": "",
      "price_range_num": 0,
      "restaurant_id": 3279520079860700,
      "cuisines": [
        "American",
        "Burgers"
      ],
      "address": {
        "city": "Mount Pleasant",
        "state": "SC",
        "postal_code": "29464",
        "street": "935 Chuck Dawley Blvd",
        "formatted": "935 Chuck Dawley Blvd Mount Pleasant, SC 29464"
      },
      "geo": {
        "lat": 32.7952,
        "lon": -79.8607
      },
      "menus": [],
      "last_updated": "2021-01-05T07:28:35.871Z"
    },
    {
      "restaurant_name": "Hardee's",
      "restaurant_phone": "(843) 884-5720",
      "restaurant_website": "http://www.hardees.com",
      "hours": "",
      "price_range": "",
      "price_range_num": 0,
      "restaurant_id": 3280008179890593,
      "cuisines": [
        "American",
        "Burgers"
      ],
      "address": {
        "city": "MOUNT PLEASANT",
        "state": "SC",
        "postal_code": "29464",
        "street": "960 Houston Northcutt Blvd",
        "formatted": "960 Houston Northcutt Blvd MOUNT PLEASANT, SC 29464"
      },
      "geo": {
        "lat": 32.800081,
        "lon": -79.890593
      },
      "menus": [],
      "last_updated": "2021-01-05T07:28:35.896Z"
    },
    {
      "restaurant_name": "Max & Erma's",
      "restaurant_phone": "(843) 856-9511",
      "restaurant_website": "",
      "hours": "",
      "price_range": "",
      "price_range_num": 0,
      "restaurant_id": 3280128879890110,
      "cuisines": [
        "American",
        "German"
      ],
      "address": {
        "city": "MOUNT PLEASANT",
        "state": "SC",
        "postal_code": "29464",
        "street": "920 Houston Northcutt Blvd",
        "formatted": "920 Houston Northcutt Blvd MOUNT PLEASANT, SC 29464"
      },
      "geo": {
        "lat": 32.801288,
        "lon": -79.89011
      },
      "menus": [],
      "last_updated": "2021-01-05T07:28:35.918Z"
    },
    {
      "restaurant_name": "Sonic",
      "restaurant_phone": "(843) 971-8874",
      "restaurant_website": "http://www.sonicdrivein.com",
      "hours": "",
      "price_range": "",
      "price_range_num": 0,
      "restaurant_id": 3284239379854840,
      "cuisines": [
        "American",
        "Burgers"
      ],
      "address": {
        "city": "MOUNT PLEASANT",
        "state": "SC",
        "postal_code": "29464",
        "street": "691 Long Point Rd",
        "formatted": "691 Long Point Rd MOUNT PLEASANT, SC 29464"
      },
      "geo": {
        "lat": 32.842393,
        "lon": -79.85484
      },
      "menus": [],
      "last_updated": "2021-01-05T07:28:35.927Z"
    },
    {
      "restaurant_name": "McDonald's",
      "restaurant_phone": "",
      "restaurant_website": "http://www.mcdonalds.com",
      "hours": "",
      "price_range": "",
      "price_range_num": 0,
      "restaurant_id": 3281302679854377,
      "cuisines": [
        "American",
        "Burgers"
      ],
      "address": {
        "city": "MOUNT PLEASANT",
        "state": "SC",
        "postal_code": "29464",
        "street": "1533 Johnnie Dodds Blvd",
        "formatted": "1533 Johnnie Dodds Blvd MOUNT PLEASANT, SC 29464"
      },
      "geo": {
        "lat": 32.813026,
        "lon": -79.854377
      },
      "menus": [],
      "last_updated": "2021-01-05T07:28:35.939Z"
    },
    {
      "restaurant_name": "Wendy's",
      "restaurant_phone": "(843) 971-9895",
      "restaurant_website": "https://locations.wendys.com/united-states/sc/mount-pleasant/596-long-point-road",
      "hours": "",
      "price_range": "",
      "price_range_num": 0,
      "restaurant_id": 3284030079858900,
      "cuisines": [
        "American",
        "Burgers"
      ],
      "address": {
        "city": "Mount Pleasant",
        "state": "SC",
        "postal_code": "29464",
        "street": "596 Long Point Road",
        "formatted": "596 Long Point Road Mount Pleasant, SC 29464"
      },
      "geo": {
        "lat": 32.8403,
        "lon": -79.8589
      },
      "menus": [],
      "last_updated": "2021-01-05T07:28:35.950Z"
    },
    {
      "restaurant_name": "Starbucks Coffee",
      "restaurant_phone": "(843) 971-6570",
      "restaurant_website": "http://www.starbucks.com",
      "hours": "",
      "price_range": "",
      "price_range_num": 0,
      "restaurant_id": 3284139979856608,
      "cuisines": [
        "American",
        "Coffee & Tea"
      ],
      "address": {
        "city": "MOUNT PLEASANT",
        "state": "SC",
        "postal_code": "29464",
        "street": "636 Long Point Rd",
        "formatted": "636 Long Point Rd MOUNT PLEASANT, SC 29464"
      },
      "geo": {
        "lat": 32.841399,
        "lon": -79.856608
      },
      "menus": [],
      "last_updated": "2021-01-05T07:28:35.978Z"
    },
    {
      "restaurant_name": "Pretzel Twister",
      "restaurant_phone": "(843) 216-9903",
      "restaurant_website": "",
      "hours": "",
      "price_range": "",
      "price_range_num": 0,
      "restaurant_id": 3283228079826503,
      "cuisines": [
        "American",
        "American (New)",
        "Bakery & Pastries"
      ],
      "address": {
        "city": "MOUNT PLEASANT",
        "state": "SC",
        "postal_code": "29464",
        "street": "1332 Theater Dr",
        "formatted": "1332 Theater Dr MOUNT PLEASANT, SC 29464"
      },
      "geo": {
        "lat": 32.83228,
        "lon": -79.826503
      },
      "menus": [],
      "last_updated": "2021-01-05T07:28:35.981Z"
    },
    {
      "restaurant_name": "Taco Bell",
      "restaurant_phone": "(843) 971-5444",
      "restaurant_website": "http://www.tacobell.com",
      "hours": "",
      "price_range": "",
      "price_range_num": 0,
      "restaurant_id": 3283118779826492,
      "cuisines": [
        "Mexican"
      ],
      "address": {
        "city": "MOUNT PLEASANT",
        "state": "SC",
        "postal_code": "29464",
        "street": "1909 N Highway 17",
        "formatted": "1909 N Highway 17 MOUNT PLEASANT, SC 29464"
      },
      "geo": {
        "lat": 32.831187,
        "lon": -79.826492
      },
      "menus": [],
      "last_updated": "2021-01-05T07:28:36.004Z"
    },
    {
      "restaurant_name": "Jersey Mike's",
      "restaurant_phone": "(843) 881-7996",
      "restaurant_website": "http://www.jerseymikes.com/",
      "hours": "",
      "price_range": "",
      "price_range_num": 0,
      "restaurant_id": 3279757779891964,
      "cuisines": [
        "American",
        "Sandwiches"
      ],
      "address": {
        "city": "MOUNT PLEASANT",
        "state": "SC",
        "postal_code": "29464",
        "street": "280d W Coleman Blvd",
        "formatted": "280d W Coleman Blvd MOUNT PLEASANT, SC 29464"
      },
      "geo": {
        "lat": 32.797577,
        "lon": -79.891964
      },
      "menus": [],
      "last_updated": "2021-01-05T07:28:36.043Z"
    },
    {
      "restaurant_name": "Chick-fil-A",
      "restaurant_phone": "(843) 881-6811",
      "restaurant_website": "https://www.chick-fil-a.com/mt-pleasant",
      "hours": "",
      "price_range": "",
      "price_range_num": 0,
      "restaurant_id": 3281200079866000,
      "cuisines": [
        "American",
        "Chicken",
        "Salads",
        "Sandwiches"
      ],
      "address": {
        "city": "Mount Pleasant",
        "state": "SC",
        "postal_code": "29464",
        "street": "1024 Johnnie Dodds Blvd",
        "formatted": "1024 Johnnie Dodds Blvd Mount Pleasant, SC 29464"
      },
      "geo": {
        "lat": 32.812,
        "lon": -79.866
      },
      "menus": [],
      "last_updated": "2021-01-05T07:28:36.106Z"
    },
    {
      "restaurant_name": "Taco Bell",
      "restaurant_phone": "(843) 884-9968",
      "restaurant_website": "http://www.tacobell.com",
      "hours": "",
      "price_range": "",
      "price_range_num": 0,
      "restaurant_id": 3279334679864948,
      "cuisines": [
        "Mexican"
      ],
      "address": {
        "city": "MOUNT PLEASANT",
        "state": "SC",
        "postal_code": "29464",
        "street": "821 Coleman Blvd",
        "formatted": "821 Coleman Blvd MOUNT PLEASANT, SC 29464"
      },
      "geo": {
        "lat": 32.793346,
        "lon": -79.864948
      },
      "menus": [],
      "last_updated": "2021-01-05T07:28:36.115Z"
    },
    {
      "restaurant_name": "Atlanta Bread Company",
      "restaurant_phone": "(843) 216-1611",
      "restaurant_website": "",
      "hours": "",
      "price_range": "",
      "price_range_num": 0,
      "restaurant_id": 3282938879830375,
      "cuisines": [
        "American"
      ],
      "address": {
        "city": "MOUNT PLEASANT",
        "state": "SC",
        "postal_code": "29464",
        "street": "Mt. Pleasant Town Centre Space B-1",
        "formatted": "Mt. Pleasant Town Centre Space B-1 MOUNT PLEASANT, SC 29464"
      },
      "geo": {
        "lat": 32.829388,
        "lon": -79.830375
      },
      "menus": [],
      "last_updated": "2021-01-05T07:28:36.128Z"
    },
    {
      "restaurant_name": "Burger King",
      "restaurant_phone": "(843) 884-7516",
      "restaurant_website": "",
      "hours": "",
      "price_range": "",
      "price_range_num": 0,
      "restaurant_id": 3279370079863513,
      "cuisines": [
        "American",
        "Burgers"
      ],
      "address": {
        "city": "MOUNT PLEASANT",
        "state": "SC",
        "postal_code": "29464",
        "street": "847 Coleman Blvd",
        "formatted": "847 Coleman Blvd MOUNT PLEASANT, SC 29464"
      },
      "geo": {
        "lat": 32.7937,
        "lon": -79.863513
      },
      "menus": [],
      "last_updated": "2021-01-05T07:28:36.149Z"
    },
    {
      "restaurant_name": "Baskin-Robbins",
      "restaurant_phone": "(843) 881-6741",
      "restaurant_website": "https://www.baskinrobbins.com?utm_source=Yext&utm_medium=organic&utm_campaign=Yext",
      "hours": "",
      "price_range": "",
      "price_range_num": 0,
      "restaurant_id": 3279790079892400,
      "cuisines": [
        "American",
        "Ice Cream"
      ],
      "address": {
        "city": "Mount Pleasant",
        "state": "SC",
        "postal_code": "29464",
        "street": "280 W Coleman Blvd",
        "formatted": "280 W Coleman Blvd Mount Pleasant, SC 29464"
      },
      "geo": {
        "lat": 32.7979,
        "lon": -79.8924
      },
      "menus": [],
      "last_updated": "2021-01-05T07:28:36.156Z"
    },
    {
      "restaurant_name": "Red Drum Gastropub",
      "restaurant_phone": "(843) 849-0313",
      "restaurant_website": "http://www.reddrumpub.com",
      "hours": "",
      "price_range": "$",
      "price_range_num": 1,
      "restaurant_id": 3279323179865969,
      "cuisines": [
        "American",
        "Pub Food"
      ],
      "address": {
        "city": "MOUNT PLEASANT",
        "state": "SC",
        "postal_code": "29464",
        "street": "803 Coleman Blvd",
        "formatted": "803 Coleman Blvd MOUNT PLEASANT, SC 29464"
      },
      "geo": {
        "lat": 32.793231,
        "lon": -79.865969
      },
      "menus": [],
      "last_updated": "2021-01-05T07:28:36.165Z"
    },
    {
      "restaurant_name": "RB's Seafood Restaurant",
      "restaurant_phone": "(843) 881-0466",
      "restaurant_website": "",
      "hours": "",
      "price_range": "",
      "price_range_num": 0,
      "restaurant_id": 3279130179881055,
      "cuisines": [
        "American",
        "Seafood"
      ],
      "address": {
        "city": "MOUNT PLEASANT",
        "state": "SC",
        "postal_code": "29464",
        "street": "97 Church St",
        "formatted": "97 Church St MOUNT PLEASANT, SC 29464"
      },
      "geo": {
        "lat": 32.791301,
        "lon": -79.881055
      },
      "menus": [],
      "last_updated": "2021-01-05T07:28:36.193Z"
    },
    {
      "restaurant_name": "Coleman Public House",
      "restaurant_phone": "(843) 416-8833",
      "restaurant_website": "",
      "hours": "",
      "price_range": "$$$",
      "price_range_num": 3,
      "restaurant_id": 3279494079883340,
      "cuisines": [
        ""
      ],
      "address": {
        "city": "Mount Pleasant",
        "state": "SC",
        "postal_code": "29464",
        "street": "427 W Coleman Blvd",
        "formatted": "427 W Coleman Blvd Mount Pleasant, SC 29464"
      },
      "geo": {
        "lat": 32.79494,
        "lon": -79.88334
      },
      "menus": [],
      "last_updated": "2021-01-05T07:28:36.205Z"
    },
    {
      "restaurant_name": "Bambu Asian Bistro",
      "restaurant_phone": "(843) 284-8229",
      "restaurant_website": "http://www.bambudining.com/",
      "hours": "",
      "price_range": "$$",
      "price_range_num": 2,
      "restaurant_id": 3279110679873936,
      "cuisines": [
        "Chinese",
        "Japanese",
        "Sushi"
      ],
      "address": {
        "city": "MOUNT PLEASANT",
        "state": "SC",
        "postal_code": "29464",
        "street": "604 Coleman Blvd",
        "formatted": "604 Coleman Blvd MOUNT PLEASANT, SC 29464"
      },
      "geo": {
        "lat": 32.791106,
        "lon": -79.873936
      },
      "menus": [],
      "last_updated": "2021-01-05T07:28:36.221Z"
    }
  ],
  "numResults": 25
}